EESchema Schematic File Version 4
EELAYER 30 0
EELAYER END
$Descr A3 16535 11693
encoding utf-8
Sheet 1 1
Title ""
Date ""
Rev ""
Comp ""
Comment1 ""
Comment2 ""
Comment3 ""
Comment4 ""
$EndDescr
$Comp
L Function_GEN-rescue:ATMEGA328P-AU-atmel U1
U 1 1 5A8F76D0
P 3400 4100
F 0 "U1" H 3450 5467 50  0000 C CNN
F 1 "ATMEGA328P-AU" H 3450 5376 50  0000 C CNN
F 2 "Housings_QFP:TQFP-32_7x7mm_Pitch0.8mm" H 3400 4100 50  0001 C CIN
F 3 "http://www.atmel.com/images/atmel-8271-8-bit-avr-microcontroller-atmega48a-48pa-88a-88pa-168a-168pa-328-328p_datasheet.pdf" H 3400 4100 50  0001 C CNN
	1    3400 4100
	1    0    0    -1  
$EndComp
$Comp
L Function_GEN-rescue:Conn_01x03-Connector J1
U 1 1 5A902F02
P 1550 8850
F 0 "J1" H 1470 8525 50  0000 C CNN
F 1 "AC_IN" H 1470 8616 50  0000 C CNN
F 2 "TerminalBlock:TerminalBlock_bornier-3_P5.08mm" H 1550 8850 50  0001 C CNN
F 3 "~" H 1550 8850 50  0001 C CNN
	1    1550 8850
	-1   0    0    1   
$EndComp
$Comp
L Function_GEN-rescue:D-device D1
U 1 1 5A90301A
P 2100 8500
F 0 "D1" V 2054 8579 50  0000 L CNN
F 1 "D" V 2145 8579 50  0000 L CNN
F 2 "Diodes_THT:D_T-1_P10.16mm_Horizontal" H 2100 8500 50  0001 C CNN
F 3 "" H 2100 8500 50  0001 C CNN
	1    2100 8500
	0    1    1    0   
$EndComp
$Comp
L Function_GEN-rescue:D-device D3
U 1 1 5A90308A
P 2400 8500
F 0 "D3" V 2354 8579 50  0000 L CNN
F 1 "D" V 2445 8579 50  0000 L CNN
F 2 "Diodes_THT:D_T-1_P10.16mm_Horizontal" H 2400 8500 50  0001 C CNN
F 3 "" H 2400 8500 50  0001 C CNN
	1    2400 8500
	0    1    1    0   
$EndComp
$Comp
L Function_GEN-rescue:D-device D2
U 1 1 5A9030B6
P 2100 9300
F 0 "D2" V 2054 9379 50  0000 L CNN
F 1 "D" V 2145 9379 50  0000 L CNN
F 2 "Diodes_THT:D_T-1_P10.16mm_Horizontal" H 2100 9300 50  0001 C CNN
F 3 "" H 2100 9300 50  0001 C CNN
	1    2100 9300
	0    1    1    0   
$EndComp
$Comp
L Function_GEN-rescue:D-device D4
U 1 1 5A9030F6
P 2400 9300
F 0 "D4" V 2354 9379 50  0000 L CNN
F 1 "D" V 2445 9379 50  0000 L CNN
F 2 "Diodes_THT:D_T-1_P10.16mm_Horizontal" H 2400 9300 50  0001 C CNN
F 3 "" H 2400 9300 50  0001 C CNN
	1    2400 9300
	0    1    1    0   
$EndComp
$Comp
L power:GND #PWR01
U 1 1 5A90318D
P 2750 8950
F 0 "#PWR01" H 2750 8700 50  0001 C CNN
F 1 "GND" H 2755 8777 50  0000 C CNN
F 2 "" H 2750 8950 50  0001 C CNN
F 3 "" H 2750 8950 50  0001 C CNN
	1    2750 8950
	1    0    0    -1  
$EndComp
Wire Wire Line
	2750 8950 2750 8850
Wire Wire Line
	2750 8850 1750 8850
Wire Wire Line
	1750 8750 2100 8750
Wire Wire Line
	2100 8750 2100 8650
Wire Wire Line
	2100 9150 2100 8750
Connection ~ 2100 8750
Wire Wire Line
	1750 8950 2400 8950
Wire Wire Line
	2400 8950 2400 9150
Wire Wire Line
	2400 8650 2400 8950
Connection ~ 2400 8950
$Comp
L Function_GEN-rescue:CP-device C3
U 1 1 5A9033A4
P 3100 8600
F 0 "C3" H 3218 8646 50  0000 L CNN
F 1 "1000uF/25V" H 2900 9100 50  0000 L CNN
F 2 "Capacitors_THT:CP_Radial_D10.0mm_P5.00mm" H 3138 8450 50  0001 C CNN
F 3 "" H 3100 8600 50  0001 C CNN
	1    3100 8600
	1    0    0    -1  
$EndComp
$Comp
L Function_GEN-rescue:CP-device C4
U 1 1 5A90340C
P 3100 9250
F 0 "C4" H 3218 9296 50  0000 L CNN
F 1 "1000uF/25V" H 2900 8800 50  0000 L CNN
F 2 "Capacitors_THT:CP_Radial_D10.0mm_P5.00mm" H 3138 9100 50  0001 C CNN
F 3 "" H 3100 9250 50  0001 C CNN
	1    3100 9250
	1    0    0    -1  
$EndComp
Wire Wire Line
	2750 8850 3100 8850
Wire Wire Line
	3100 8850 3100 9100
Connection ~ 2750 8850
Wire Wire Line
	3100 8750 3100 8850
Connection ~ 3100 8850
Wire Wire Line
	2100 9450 2100 9600
Wire Wire Line
	2100 9600 2400 9600
Wire Wire Line
	3100 9600 3100 9400
Wire Wire Line
	2400 9450 2400 9600
Connection ~ 2400 9600
Wire Wire Line
	2400 9600 3100 9600
Wire Wire Line
	2100 8350 2100 8200
Wire Wire Line
	2100 8200 2400 8200
Wire Wire Line
	3100 8200 3100 8450
Wire Wire Line
	2400 8350 2400 8200
Connection ~ 2400 8200
Wire Wire Line
	2400 8200 3100 8200
$Comp
L Function_GEN-rescue:C-device C6
U 1 1 5A903D30
P 3750 9250
F 0 "C6" H 3865 9296 50  0000 L CNN
F 1 "100n" H 3865 9205 50  0000 L CNN
F 2 "Capacitors_SMD:C_1206_HandSoldering" H 3788 9100 50  0001 C CNN
F 3 "" H 3750 9250 50  0001 C CNN
	1    3750 9250
	1    0    0    -1  
$EndComp
$Comp
L Function_GEN-rescue:C-device C5
U 1 1 5A903DD2
P 3750 8600
F 0 "C5" H 3865 8646 50  0000 L CNN
F 1 "100n" H 3865 8555 50  0000 L CNN
F 2 "Capacitors_SMD:C_1206_HandSoldering" H 3788 8450 50  0001 C CNN
F 3 "" H 3750 8600 50  0001 C CNN
	1    3750 8600
	1    0    0    -1  
$EndComp
$Comp
L Function_GEN-rescue:LM7812_TO220-regul U2
U 1 1 5A903ECC
P 4500 8200
F 0 "U2" H 4500 8442 50  0000 C CNN
F 1 "LM7812_TO220" H 4500 8351 50  0000 C CNN
F 2 "TO_SOT_Packages_THT:TO-220-3_Vertical" H 4500 8425 50  0001 C CIN
F 3 "http://www.fairchildsemi.com/ds/LM/LM7805.pdf" H 4500 8150 50  0001 C CNN
	1    4500 8200
	1    0    0    -1  
$EndComp
Wire Wire Line
	4200 8200 3750 8200
Connection ~ 3100 8200
Wire Wire Line
	3750 8450 3750 8200
Connection ~ 3750 8200
Wire Wire Line
	3750 8200 3100 8200
Wire Wire Line
	3100 8850 3750 8850
Wire Wire Line
	3750 8850 3750 8750
Wire Wire Line
	3750 9100 3750 8850
Connection ~ 3750 8850
$Comp
L Function_GEN-rescue:LM7912_TO220-regul U3
U 1 1 5A904880
P 4500 9600
F 0 "U3" H 4500 9450 50  0000 C CNN
F 1 "LM7912_TO220" H 4500 9359 50  0000 C CNN
F 2 "TO_SOT_Packages_THT:TO-220-3_Vertical" H 4500 9400 50  0001 C CIN
F 3 "http://www.fairchildsemi.com/ds/LM/LM7905.pdf" H 4500 9600 50  0001 C CNN
	1    4500 9600
	1    0    0    -1  
$EndComp
Wire Wire Line
	4200 9600 3750 9600
Connection ~ 3100 9600
Wire Wire Line
	3750 9400 3750 9600
Connection ~ 3750 9600
Wire Wire Line
	3750 9600 3100 9600
Wire Wire Line
	4500 9300 4500 8850
Wire Wire Line
	3750 8850 4500 8850
Connection ~ 4500 8850
Wire Wire Line
	4500 8850 4500 8500
$Comp
L Function_GEN-rescue:C-device C9
U 1 1 5A905654
P 5000 8600
F 0 "C9" H 5115 8646 50  0000 L CNN
F 1 "100n" H 5115 8555 50  0000 L CNN
F 2 "Capacitors_SMD:C_1206_HandSoldering" H 5038 8450 50  0001 C CNN
F 3 "" H 5000 8600 50  0001 C CNN
	1    5000 8600
	1    0    0    -1  
$EndComp
$Comp
L Function_GEN-rescue:C-device C10
U 1 1 5A90569A
P 5000 9250
F 0 "C10" H 5115 9296 50  0000 L CNN
F 1 "100n" H 5115 9205 50  0000 L CNN
F 2 "Capacitors_SMD:C_1206_HandSoldering" H 5038 9100 50  0001 C CNN
F 3 "" H 5000 9250 50  0001 C CNN
	1    5000 9250
	1    0    0    -1  
$EndComp
Wire Wire Line
	4800 9600 5000 9600
Wire Wire Line
	5000 9600 5000 9400
Wire Wire Line
	5000 9100 5000 8850
Wire Wire Line
	4500 8850 5000 8850
Connection ~ 5000 8850
Wire Wire Line
	5000 8850 5000 8750
Wire Wire Line
	5000 8450 5000 8200
Wire Wire Line
	5000 8200 4800 8200
$Comp
L Function_GEN-rescue:CP-device C11
U 1 1 5A906AFE
P 5500 8600
F 0 "C11" H 5618 8646 50  0000 L CNN
F 1 "100uF/16V" H 5618 8555 50  0000 L CNN
F 2 "Capacitors_THT:CP_Radial_D6.3mm_P2.50mm" H 5538 8450 50  0001 C CNN
F 3 "" H 5500 8600 50  0001 C CNN
	1    5500 8600
	1    0    0    -1  
$EndComp
$Comp
L Function_GEN-rescue:CP-device C12
U 1 1 5A906C60
P 5500 9250
F 0 "C12" H 5618 9296 50  0000 L CNN
F 1 "100uF/16V" H 5618 9205 50  0000 L CNN
F 2 "Capacitors_THT:CP_Radial_D6.3mm_P2.50mm" H 5538 9100 50  0001 C CNN
F 3 "" H 5500 9250 50  0001 C CNN
	1    5500 9250
	1    0    0    -1  
$EndComp
Wire Wire Line
	5500 8750 5500 8850
Wire Wire Line
	5000 8850 5500 8850
Connection ~ 5500 8850
Wire Wire Line
	5500 8850 5500 9100
Wire Wire Line
	5500 8450 5500 8200
Wire Wire Line
	5500 8200 5000 8200
Connection ~ 5000 8200
Wire Wire Line
	5500 9400 5500 9600
Wire Wire Line
	5500 9600 5000 9600
Connection ~ 5000 9600
$Comp
L Function_GEN-rescue:LM7805_TO220-regul U5
U 1 1 5A9085C1
P 6800 8200
F 0 "U5" H 6800 8442 50  0000 C CNN
F 1 "LM7805_TO220" H 6800 8351 50  0000 C CNN
F 2 "TO_SOT_Packages_THT:TO-220-3_Vertical" H 6800 8425 50  0001 C CIN
F 3 "http://www.fairchildsemi.com/ds/LM/LM7805.pdf" H 6800 8150 50  0001 C CNN
	1    6800 8200
	1    0    0    -1  
$EndComp
$Comp
L Function_GEN-rescue:C-device C13
U 1 1 5A90866C
P 6200 8600
F 0 "C13" H 6315 8646 50  0000 L CNN
F 1 "100n" H 6315 8555 50  0000 L CNN
F 2 "Capacitors_SMD:C_1206_HandSoldering" H 6238 8450 50  0001 C CNN
F 3 "" H 6200 8600 50  0001 C CNN
	1    6200 8600
	1    0    0    -1  
$EndComp
Wire Wire Line
	6500 8200 6200 8200
Connection ~ 5500 8200
Wire Wire Line
	6200 8450 6200 8200
Connection ~ 6200 8200
Wire Wire Line
	6200 8200 5500 8200
Wire Wire Line
	5500 8850 6200 8850
Wire Wire Line
	6200 8850 6200 8750
Wire Wire Line
	6200 8850 6800 8850
Wire Wire Line
	6800 8850 6800 8500
Connection ~ 6200 8850
$Comp
L Function_GEN-rescue:C-device C14
U 1 1 5A90A69C
P 7300 8600
F 0 "C14" H 7415 8646 50  0000 L CNN
F 1 "100n" H 7415 8555 50  0000 L CNN
F 2 "Capacitors_SMD:C_1206_HandSoldering" H 7338 8450 50  0001 C CNN
F 3 "" H 7300 8600 50  0001 C CNN
	1    7300 8600
	1    0    0    -1  
$EndComp
Wire Wire Line
	7300 8450 7300 8200
Wire Wire Line
	7300 8200 7100 8200
Wire Wire Line
	7300 8750 7300 8850
Wire Wire Line
	7300 8850 6800 8850
Connection ~ 6800 8850
$Comp
L Function_GEN-rescue:CP-device C15
U 1 1 5A90BB7F
P 7800 8600
F 0 "C15" H 7918 8646 50  0000 L CNN
F 1 "100uF/10V" H 7918 8555 50  0000 L CNN
F 2 "Capacitors_THT:CP_Radial_D5.0mm_P2.00mm" H 7838 8450 50  0001 C CNN
F 3 "" H 7800 8600 50  0001 C CNN
	1    7800 8600
	1    0    0    -1  
$EndComp
Wire Wire Line
	7800 8450 7800 8200
Wire Wire Line
	7800 8200 7300 8200
Connection ~ 7300 8200
Wire Wire Line
	7800 8750 7800 8850
Wire Wire Line
	7800 8850 7300 8850
Connection ~ 7300 8850
Text GLabel 5500 8050 1    50   Input ~ 0
+12V
Text GLabel 5500 9750 3    50   Input ~ 0
-12V
Text GLabel 8250 8200 2    50   Input ~ 0
+5V
Wire Wire Line
	8250 8200 7800 8200
Connection ~ 7800 8200
Wire Wire Line
	5500 8050 5500 8200
Wire Wire Line
	5500 9750 5500 9600
Connection ~ 5500 9600
$Comp
L Function_GEN-rescue:Rotary_Encoder_Switch-device SW3
U 1 1 5A90FCE1
P 5500 4900
F 0 "SW3" H 5500 5267 50  0000 C CNN
F 1 "FREQ" H 5500 5176 50  0000 C CNN
F 2 "sparkfun:SF-ROTARY-ENCODER" H 5400 5060 50  0001 C CNN
F 3 "~" H 5500 5160 50  0001 C CNN
	1    5500 4900
	1    0    0    -1  
$EndComp
Text GLabel 2050 3000 0    50   Input ~ 0
+5V
Wire Wire Line
	2050 3000 2250 3000
Wire Wire Line
	2500 3100 2250 3100
Wire Wire Line
	2250 3100 2250 3000
Connection ~ 2250 3000
Wire Wire Line
	2250 3000 2500 3000
Wire Wire Line
	2500 3300 2250 3300
Wire Wire Line
	2250 3300 2250 3100
Connection ~ 2250 3100
$Comp
L Function_GEN-rescue:C_Small-device C2
U 1 1 5A912F3E
P 2250 3850
F 0 "C2" H 2342 3896 50  0000 L CNN
F 1 "100n" H 2342 3805 50  0000 L CNN
F 2 "Capacitors_SMD:C_1206_HandSoldering" H 2250 3850 50  0001 C CNN
F 3 "" H 2250 3850 50  0001 C CNN
	1    2250 3850
	1    0    0    -1  
$EndComp
Wire Wire Line
	2250 3750 2250 3300
Connection ~ 2250 3300
Wire Wire Line
	2250 3950 2250 4050
Wire Wire Line
	2250 5100 2500 5100
Wire Wire Line
	2250 5100 2250 5200
Wire Wire Line
	2250 5200 2500 5200
Connection ~ 2250 5100
Wire Wire Line
	2250 5200 2250 5300
Wire Wire Line
	2250 5300 2500 5300
Connection ~ 2250 5200
$Comp
L power:GND #PWR02
U 1 1 5A917D31
P 2250 5450
F 0 "#PWR02" H 2250 5200 50  0001 C CNN
F 1 "GND" H 2255 5277 50  0000 C CNN
F 2 "" H 2250 5450 50  0001 C CNN
F 3 "" H 2250 5450 50  0001 C CNN
	1    2250 5450
	1    0    0    -1  
$EndComp
Wire Wire Line
	2250 5450 2250 5300
Connection ~ 2250 5300
$Comp
L Function_GEN-rescue:C_Small-device C1
U 1 1 5A919373
P 2050 3850
F 0 "C1" H 1850 3900 50  0000 L CNN
F 1 "100n" H 1750 3800 50  0000 L CNN
F 2 "Capacitors_SMD:C_1206_HandSoldering" H 2050 3850 50  0001 C CNN
F 3 "" H 2050 3850 50  0001 C CNN
	1    2050 3850
	1    0    0    -1  
$EndComp
Wire Wire Line
	2500 3600 2050 3600
Wire Wire Line
	2050 3600 2050 3750
Wire Wire Line
	2050 3950 2050 4050
Wire Wire Line
	2050 4050 2250 4050
Connection ~ 2250 4050
Wire Wire Line
	2250 4050 2250 5100
$Comp
L Function_GEN-rescue:Crystal-device Y1
U 1 1 5A91C90A
P 5000 3650
F 0 "Y1" V 4954 3781 50  0000 L CNN
F 1 "16MHz" V 5045 3781 50  0000 L CNN
F 2 "Crystals:Crystal_SMD_HC49-SD_HandSoldering" H 5000 3650 50  0001 C CNN
F 3 "" H 5000 3650 50  0001 C CNN
	1    5000 3650
	0    1    1    0   
$EndComp
Wire Wire Line
	4400 3600 4650 3600
Wire Wire Line
	4650 3600 4650 3500
Wire Wire Line
	4650 3500 5000 3500
Wire Wire Line
	4400 3700 4650 3700
Wire Wire Line
	4650 3700 4650 3800
Wire Wire Line
	4650 3800 5000 3800
$Comp
L Function_GEN-rescue:C_Small-device C7
U 1 1 5A9205DB
P 5500 3500
F 0 "C7" V 5271 3500 50  0000 C CNN
F 1 "22pF" V 5362 3500 50  0000 C CNN
F 2 "Capacitors_SMD:C_1206_HandSoldering" H 5500 3500 50  0001 C CNN
F 3 "" H 5500 3500 50  0001 C CNN
	1    5500 3500
	0    1    1    0   
$EndComp
$Comp
L Function_GEN-rescue:C_Small-device C8
U 1 1 5A92080D
P 5500 3800
F 0 "C8" V 5750 3800 50  0000 C CNN
F 1 "22pF" V 5650 3800 50  0000 C CNN
F 2 "Capacitors_SMD:C_1206_HandSoldering" H 5500 3800 50  0001 C CNN
F 3 "" H 5500 3800 50  0001 C CNN
	1    5500 3800
	0    1    1    0   
$EndComp
Wire Wire Line
	5000 3800 5400 3800
Connection ~ 5000 3800
Wire Wire Line
	5000 3500 5400 3500
Connection ~ 5000 3500
$Comp
L power:GND #PWR03
U 1 1 5A924A4F
P 5750 3900
F 0 "#PWR03" H 5750 3650 50  0001 C CNN
F 1 "GND" H 5755 3727 50  0000 C CNN
F 2 "" H 5750 3900 50  0001 C CNN
F 3 "" H 5750 3900 50  0001 C CNN
	1    5750 3900
	1    0    0    -1  
$EndComp
Wire Wire Line
	5750 3900 5750 3800
Wire Wire Line
	5750 3800 5600 3800
Wire Wire Line
	5750 3800 5750 3500
Wire Wire Line
	5750 3500 5600 3500
Connection ~ 5750 3800
Text GLabel 4550 4450 2    50   Input ~ 0
RESET
Wire Wire Line
	4550 4450 4400 4450
Text GLabel 1700 2050 0    50   Input ~ 0
+5V
$Comp
L Function_GEN-rescue:R-device R1
U 1 1 5A92E360
P 1950 2050
F 0 "R1" V 1743 2050 50  0000 C CNN
F 1 "1k" V 1834 2050 50  0000 C CNN
F 2 "Resistors_THT:R_Axial_DIN0204_L3.6mm_D1.6mm_P7.62mm_Horizontal" V 1880 2050 50  0001 C CNN
F 3 "" H 1950 2050 50  0001 C CNN
	1    1950 2050
	0    1    1    0   
$EndComp
Wire Wire Line
	1800 2050 1700 2050
Text GLabel 2250 2200 3    50   Input ~ 0
RESET
Wire Wire Line
	2250 2200 2250 2050
Wire Wire Line
	2250 2050 2100 2050
$Comp
L Switch:SW_Push SW1
U 1 1 5A933749
P 2600 2050
F 0 "SW1" H 2600 2335 50  0000 C CNN
F 1 "SW_Push" H 2600 2244 50  0000 C CNN
F 2 "Buttons_Switches_THT:SW_PUSH_6mm" H 2600 2250 50  0001 C CNN
F 3 "" H 2600 2250 50  0001 C CNN
	1    2600 2050
	1    0    0    -1  
$EndComp
Wire Wire Line
	2400 2050 2250 2050
Connection ~ 2250 2050
$Comp
L power:GND #PWR04
U 1 1 5A93622A
P 2900 2250
F 0 "#PWR04" H 2900 2000 50  0001 C CNN
F 1 "GND" H 2905 2077 50  0000 C CNN
F 2 "" H 2900 2250 50  0001 C CNN
F 3 "" H 2900 2250 50  0001 C CNN
	1    2900 2250
	1    0    0    -1  
$EndComp
Wire Wire Line
	2900 2250 2900 2050
Wire Wire Line
	2900 2050 2800 2050
$Comp
L Function_GEN-rescue:Conn_01x04-Connector J2
U 1 1 5A93C292
P 2950 7050
F 0 "J2" H 3030 7042 50  0000 L CNN
F 1 "PR_HEADER" H 3030 6951 50  0000 L CNN
F 2 "TerminalBlock_Phoenix:TerminalBlock_Phoenix_MPT-2.54mm_4pol" H 2950 7050 50  0001 C CNN
F 3 "~" H 2950 7050 50  0001 C CNN
	1    2950 7050
	-1   0    0    -1  
$EndComp
$Comp
L power:GND #PWR05
U 1 1 5A944A6A
P 3250 7350
F 0 "#PWR05" H 3250 7100 50  0001 C CNN
F 1 "GND" H 3255 7177 50  0000 C CNN
F 2 "" H 3250 7350 50  0001 C CNN
F 3 "" H 3250 7350 50  0001 C CNN
	1    3250 7350
	1    0    0    -1  
$EndComp
Wire Wire Line
	3250 7350 3250 7250
Wire Wire Line
	3250 7250 3150 7250
Text GLabel 3400 7150 2    50   Input ~ 0
RESET
Wire Wire Line
	3400 7150 3150 7150
Text GLabel 3400 7050 2    50   Input ~ 0
RXD
Wire Wire Line
	3400 7050 3150 7050
Text GLabel 3400 6950 2    50   Input ~ 0
TXD
Wire Wire Line
	3150 6950 3400 6950
Text GLabel 4550 4600 2    50   Input ~ 0
RXD
Wire Wire Line
	4550 4600 4400 4600
Text GLabel 4550 4700 2    50   Input ~ 0
TXD
Wire Wire Line
	4550 4700 4400 4700
Wire Wire Line
	6850 3300 4400 3300
Wire Wire Line
	4400 3950 5300 3950
Wire Wire Line
	5300 3950 5300 4350
Wire Wire Line
	4400 3850 5200 3850
Wire Wire Line
	5200 3850 5200 4200
Wire Wire Line
	4400 3500 4550 3500
Wire Wire Line
	4550 3500 4550 3100
Wire Wire Line
	4550 3100 6400 3100
Wire Wire Line
	6400 3100 6400 3900
Wire Wire Line
	6300 3750 6300 3200
Wire Wire Line
	6300 3200 4400 3200
Wire Wire Line
	4400 3100 4500 3100
Wire Wire Line
	4500 3100 4500 3000
$Comp
L Function_GEN-rescue:R-device R2
U 1 1 5A972D89
P 5700 3000
F 0 "R2" V 5493 3000 50  0000 C CNN
F 1 "100R" V 5584 3000 50  0000 C CNN
F 2 "Resistors_THT:R_Axial_DIN0204_L3.6mm_D1.6mm_P7.62mm_Horizontal" V 5630 3000 50  0001 C CNN
F 3 "" H 5700 3000 50  0001 C CNN
	1    5700 3000
	0    1    1    0   
$EndComp
Wire Wire Line
	5550 3000 4500 3000
$Comp
L power:GND #PWR06
U 1 1 5A97BA72
P 6650 5300
F 0 "#PWR06" H 6650 5050 50  0001 C CNN
F 1 "GND" H 6655 5127 50  0000 C CNN
F 2 "" H 6650 5300 50  0001 C CNN
F 3 "" H 6650 5300 50  0001 C CNN
	1    6650 5300
	1    0    0    -1  
$EndComp
Wire Wire Line
	6650 5300 6650 5100
Text GLabel 6250 4950 0    50   Input ~ 0
+5V
$Comp
L power:GND #PWR07
U 1 1 5A985C6E
P 8700 3300
F 0 "#PWR07" H 8700 3050 50  0001 C CNN
F 1 "GND" H 8705 3127 50  0000 C CNN
F 2 "" H 8700 3300 50  0001 C CNN
F 3 "" H 8700 3300 50  0001 C CNN
	1    8700 3300
	1    0    0    -1  
$EndComp
Text GLabel 8450 3150 0    50   Input ~ 0
+5V
Wire Wire Line
	4400 3000 4400 2350
Wire Wire Line
	4400 2350 8250 2350
Wire Wire Line
	8250 2350 8250 3050
Wire Wire Line
	8250 3050 8900 3050
Wire Wire Line
	4400 5300 4400 5950
Wire Wire Line
	4400 5950 8150 5950
Wire Wire Line
	8100 5900 4500 5900
Wire Wire Line
	4500 5900 4500 5200
Wire Wire Line
	4500 5200 4400 5200
Wire Wire Line
	4400 5100 4600 5100
Wire Wire Line
	4600 5100 4600 5850
Wire Wire Line
	4600 5850 8050 5850
Wire Wire Line
	4400 4800 5200 4800
Wire Wire Line
	4400 4900 5200 4900
$Comp
L power:GND #PWR08
U 1 1 5A9C8602
P 5150 5200
F 0 "#PWR08" H 5150 4950 50  0001 C CNN
F 1 "GND" H 5155 5027 50  0000 C CNN
F 2 "" H 5150 5200 50  0001 C CNN
F 3 "" H 5150 5200 50  0001 C CNN
	1    5150 5200
	1    0    0    -1  
$EndComp
Wire Wire Line
	5150 5200 5150 5150
Wire Wire Line
	5150 5000 5200 5000
Wire Wire Line
	4400 5000 5050 5000
Wire Wire Line
	5050 5000 5050 4450
Wire Wire Line
	5050 4450 5800 4450
Wire Wire Line
	5800 4450 5800 4800
Wire Wire Line
	5800 5000 5800 5150
Wire Wire Line
	5800 5150 5150 5150
Connection ~ 5150 5150
Wire Wire Line
	5150 5150 5150 5000
$Comp
L Function_GEN-rescue:Rotary_Encoder_Switch-device SW2
U 1 1 5A9DC573
P 5350 6600
F 0 "SW2" H 5350 6967 50  0000 C CNN
F 1 "STEP" H 5350 6876 50  0000 C CNN
F 2 "sparkfun:SF-ROTARY-ENCODER" H 5250 6760 50  0001 C CNN
F 3 "~" H 5350 6860 50  0001 C CNN
	1    5350 6600
	1    0    0    -1  
$EndComp
$Comp
L power:GND #PWR09
U 1 1 5A9DC7B7
P 5000 6950
F 0 "#PWR09" H 5000 6700 50  0001 C CNN
F 1 "GND" H 5005 6777 50  0000 C CNN
F 2 "" H 5000 6950 50  0001 C CNN
F 3 "" H 5000 6950 50  0001 C CNN
	1    5000 6950
	1    0    0    -1  
$EndComp
Wire Wire Line
	5000 6850 5000 6700
Wire Wire Line
	5000 6700 5050 6700
Wire Wire Line
	5650 6700 5650 6850
Wire Wire Line
	5650 6850 5000 6850
Connection ~ 5000 6850
Wire Wire Line
	5000 6950 5000 6850
Wire Wire Line
	4400 4050 4950 4050
Wire Wire Line
	4950 4050 4950 6500
Wire Wire Line
	4950 6500 5050 6500
Wire Wire Line
	4400 4150 4900 4150
Wire Wire Line
	4900 4150 4900 6600
Wire Wire Line
	4900 6600 5050 6600
Wire Wire Line
	4400 4250 5950 4250
Wire Wire Line
	5950 4250 5950 6500
Wire Wire Line
	5950 6500 5650 6500
$Comp
L Function_GEN-rescue:SANYOU_SRD_Form_C-Relay K1
U 1 1 5A904458
P 10250 2300
F 0 "K1" V 10817 2300 50  0000 C CNN
F 1 "SANYOU_SRD_Form_C" V 10726 2300 50  0000 C CNN
F 2 "Relays_THT:Relay_SPDT_SANYOU_SRD_Series_Form_C" H 11700 2250 50  0001 C CNN
F 3 "http://www.sanyourelay.ca/public/products/pdf/SRD.pdf" H 10250 2300 50  0001 C CNN
	1    10250 2300
	0    -1   -1   0   
$EndComp
Wire Wire Line
	8300 2650 8300 2200
Wire Wire Line
	8300 2200 9950 2200
Wire Wire Line
	8300 2650 8900 2650
Wire Wire Line
	9950 2000 8350 2000
Wire Wire Line
	8350 2000 8350 2550
Wire Wire Line
	4400 3400 5150 3400
Wire Wire Line
	5150 3400 5150 1850
Wire Wire Line
	5150 1850 9750 1850
Wire Wire Line
	9750 1850 9750 2500
Wire Wire Line
	9750 2500 9950 2500
$Comp
L power:GND #PWR010
U 1 1 5A91F8E9
P 10800 2700
F 0 "#PWR010" H 10800 2450 50  0001 C CNN
F 1 "GND" H 10805 2527 50  0000 C CNN
F 2 "" H 10800 2700 50  0001 C CNN
F 3 "" H 10800 2700 50  0001 C CNN
	1    10800 2700
	1    0    0    -1  
$EndComp
Wire Wire Line
	10800 2700 10800 2500
Wire Wire Line
	10800 2500 10600 2500
$Comp
L Function_GEN-rescue:D-device D5
U 1 1 5A928BCF
P 10300 3050
F 0 "D5" H 10300 3266 50  0000 C CNN
F 1 "D" H 10300 3175 50  0000 C CNN
F 2 "Diodes_THT:D_T-1_P10.16mm_Horizontal" H 10300 3050 50  0001 C CNN
F 3 "" H 10300 3050 50  0001 C CNN
	1    10300 3050
	1    0    0    -1  
$EndComp
Wire Wire Line
	10450 3050 10600 3050
Wire Wire Line
	10600 3050 10600 2500
Connection ~ 10600 2500
Wire Wire Line
	10600 2500 10550 2500
Wire Wire Line
	10150 3050 9750 3050
Wire Wire Line
	9750 3050 9750 2500
Connection ~ 9750 2500
$Comp
L Function_GEN-rescue:NE5534-linear U7
U 1 1 5A93BF1E
P 12200 2200
F 0 "U7" H 12541 2246 50  0000 L CNN
F 1 "NE5534" H 12541 2155 50  0000 L CNN
F 2 "Housings_DIP:DIP-8_W7.62mm_LongPads" H 12250 2250 50  0001 C CNN
F 3 "http://www.ti.com/lit/ds/symlink/ne5534.pdf" H 12250 2350 50  0001 C CNN
	1    12200 2200
	1    0    0    -1  
$EndComp
Wire Wire Line
	11900 2100 10550 2100
$Comp
L Function_GEN-rescue:R-device R3
U 1 1 5A94595C
P 11800 3200
F 0 "R3" H 11870 3246 50  0000 L CNN
F 1 "10k" H 11870 3155 50  0000 L CNN
F 2 "Resistors_THT:R_Axial_DIN0204_L3.6mm_D1.6mm_P7.62mm_Horizontal" V 11730 3200 50  0001 C CNN
F 3 "" H 11800 3200 50  0001 C CNN
	1    11800 3200
	1    0    0    -1  
$EndComp
$Comp
L Function_GEN-rescue:R-device R4
U 1 1 5A945A4E
P 12400 2900
F 0 "R4" V 12193 2900 50  0000 C CNN
F 1 "10k" V 12284 2900 50  0000 C CNN
F 2 "Resistors_THT:R_Axial_DIN0204_L3.6mm_D1.6mm_P7.62mm_Horizontal" V 12330 2900 50  0001 C CNN
F 3 "" H 12400 2900 50  0001 C CNN
	1    12400 2900
	0    1    1    0   
$EndComp
Wire Wire Line
	12250 2900 11800 2900
Wire Wire Line
	11800 2900 11800 2300
Wire Wire Line
	11800 2300 11900 2300
Wire Wire Line
	11800 3050 11800 2900
Connection ~ 11800 2900
Wire Wire Line
	12550 2900 12900 2900
Wire Wire Line
	12900 2900 12900 2200
Wire Wire Line
	12900 2200 12500 2200
$Comp
L power:GND #PWR011
U 1 1 5A96393A
P 11800 3500
F 0 "#PWR011" H 11800 3250 50  0001 C CNN
F 1 "GND" H 11805 3327 50  0000 C CNN
F 2 "" H 11800 3500 50  0001 C CNN
F 3 "" H 11800 3500 50  0001 C CNN
	1    11800 3500
	1    0    0    -1  
$EndComp
Wire Wire Line
	11800 3500 11800 3350
Text GLabel 12100 1800 1    50   Input ~ 0
+12V
Wire Wire Line
	12100 1800 12100 1900
Text GLabel 12100 2600 3    50   Input ~ 0
-12V
Wire Wire Line
	12100 2600 12100 2500
$Comp
L Function_GEN-rescue:POT-device RV1
U 1 1 5A98F25F
P 13250 2400
F 0 "RV1" H 13180 2446 50  0000 R CNN
F 1 "10k" H 13180 2355 50  0000 R CNN
F 2 "Potentiometers:Potentiometer_Trimmer_Bourns_3296W" H 13250 2400 50  0001 C CNN
F 3 "" H 13250 2400 50  0001 C CNN
	1    13250 2400
	1    0    0    -1  
$EndComp
Wire Wire Line
	13250 2250 13250 2200
Wire Wire Line
	13250 2200 12900 2200
Connection ~ 12900 2200
$Comp
L power:GND #PWR012
U 1 1 5A999733
P 13250 2650
F 0 "#PWR012" H 13250 2400 50  0001 C CNN
F 1 "GND" H 13255 2477 50  0000 C CNN
F 2 "" H 13250 2650 50  0001 C CNN
F 3 "" H 13250 2650 50  0001 C CNN
	1    13250 2650
	1    0    0    -1  
$EndComp
Wire Wire Line
	13250 2650 13250 2600
$Comp
L Function_GEN-rescue:Conn_01x02-Connector J4
U 1 1 5A9A3F9C
P 13950 2400
F 0 "J4" H 14030 2392 50  0000 L CNN
F 1 "OUTPUT" H 14030 2301 50  0000 L CNN
F 2 "TerminalBlock:TerminalBlock_bornier-2_P5.08mm" H 13950 2400 50  0001 C CNN
F 3 "~" H 13950 2400 50  0001 C CNN
	1    13950 2400
	1    0    0    -1  
$EndComp
Wire Wire Line
	13750 2400 13400 2400
Wire Wire Line
	13750 2500 13750 2600
Wire Wire Line
	13750 2600 13250 2600
Connection ~ 13250 2600
Wire Wire Line
	13250 2600 13250 2550
Text Label 6550 3000 0    50   ~ 0
LED+
Text Label 6550 3300 0    50   ~ 0
MOSI
Text Label 6550 3750 0    50   ~ 0
CS
Text Label 6550 3900 0    50   ~ 0
SCK
Text Label 6550 4200 0    50   ~ 0
A0
Text Label 6550 4350 0    50   ~ 0
RESET
Text Label 6550 4950 0    50   ~ 0
VCC
$Comp
L Function_GEN-rescue:Conn_01x08-Connector J?
U 1 1 5A94E8FB
P 7600 3300
F 0 "J?" H 7679 3292 50  0000 L CNN
F 1 "LCD_HEADER" H 7679 3201 50  0000 L CNN
F 2 "" H 7600 3300 50  0001 C CNN
F 3 "~" H 7600 3300 50  0001 C CNN
	1    7600 3300
	1    0    0    -1  
$EndComp
Wire Wire Line
	5850 3000 7400 3000
Wire Wire Line
	6850 3300 6850 3100
Wire Wire Line
	6850 3100 7400 3100
Wire Wire Line
	6900 3750 6900 3200
Wire Wire Line
	6900 3200 7400 3200
Wire Wire Line
	6300 3750 6900 3750
Wire Wire Line
	7000 3900 7000 3300
Wire Wire Line
	7000 3300 7400 3300
Wire Wire Line
	6400 3900 7000 3900
Wire Wire Line
	7100 4200 7100 3400
Wire Wire Line
	7100 3400 7400 3400
Wire Wire Line
	5200 4200 7100 4200
Wire Wire Line
	7200 4350 7200 3500
Wire Wire Line
	7200 3500 7400 3500
Wire Wire Line
	5300 4350 7200 4350
Wire Wire Line
	7250 4950 7250 3600
Wire Wire Line
	7250 3600 7400 3600
Wire Wire Line
	6250 4950 7250 4950
Wire Wire Line
	7350 5100 7350 3700
Wire Wire Line
	7350 3700 7400 3700
Wire Wire Line
	6650 5100 7350 5100
Text Label 8400 2550 0    50   ~ 0
ZOUT2
Text Label 8400 2650 0    50   ~ 0
QOUT1
Text Label 8400 2750 0    50   ~ 0
RESET
Text Label 8400 2850 0    50   ~ 0
DATA
Text Label 8400 2950 0    50   ~ 0
FU_UD
Text Label 8400 3050 0    50   ~ 0
W_CLK
$Comp
L Function_GEN-rescue:Conn_01x08-Connector J?
U 1 1 5A9E65FA
P 9100 2850
F 0 "J?" H 9180 2842 50  0000 L CNN
F 1 "GEN_HEADER" H 9180 2751 50  0000 L CNN
F 2 "" H 9100 2850 50  0001 C CNN
F 3 "~" H 9100 2850 50  0001 C CNN
	1    9100 2850
	1    0    0    -1  
$EndComp
Wire Wire Line
	8350 2550 8900 2550
Wire Wire Line
	8050 2750 8900 2750
Wire Wire Line
	8050 2750 8050 5850
Wire Wire Line
	8100 2850 8900 2850
Wire Wire Line
	8100 2850 8100 5900
Wire Wire Line
	8150 2950 8900 2950
Wire Wire Line
	8150 2950 8150 5950
Wire Wire Line
	8450 3150 8900 3150
Wire Wire Line
	8700 3300 8700 3250
Wire Wire Line
	8700 3250 8900 3250
$EndSCHEMATC
